GateKeepers.output1.txt
|##|A|B|C|D|F0|F1|F2|F3|F4|F5|F6|F7|F8|F9|
|==+=+=+=+=+==+==+==+==+==+==+==+==+==+==|
| 0|0|0|0|0| 0| 0| 1| 0| 1| 0| 1| 1| 0| 1|
| 1|0|0|0|1| 0| 1| 0| 0| 1| 1| 1| 1| 0| 0|
| 2|0|0|1|0| 1| 0| 0| 0| 1| 0| 1| 1| 1| 0|
| 3|0|0|1|1| 1| 1| 1| 0| 0| 1| 1| 1| 1| 1|
| 4|0|1|0|0| 0| 1| 0| 1| 1| 1| 1| 0| 1| 0|
| 5|0|1|0|1| 0| 0| 1| 1| 1| 1| 1| 1| 1| 0|
| 6|0|1|1|0| 1| 1| 1| 1| 0| 1| 1| 1| 0| 0|
| 7|0|1|1|1| 1| 1| 0| 1| 0| 1| 1| 1| 0| 0|
| 8|1|0|0|0| 0| 1| 1| 1| 1| 0| 0| 0| 0| 0|
| 9|1|0|0|1| 0| 0| 0| 1| 0| 1| 0| 0| 0| 1|
|10|1|0|1|0| 1| 1| 0| 1| 0| 0| 0| 0| 0| 0|
|11|1|0|1|1| 1| 1| 1| 1| 0| 1| 0| 0| 0| 0|
|12|1|1|0|0| 0| 1| 0| 1| 0| 0| 0| 0| 0| 1|
|13|1|1|0|1| 0| 1| 1| 1| 0| 0| 0| 0| 0| 0|
|14|1|1|1|0| 1| 0| 1| 1| 0| 0| 0| 0| 0| 0|
|15|1|1|1|1| 1| 1| 0| 1| 0| 0| 1| 0| 0| 1|
GateKeepers.part1.v:82: $finish called at 90 (1s)